%YAML 1.1
%TAG !u! tag:unity3d.com,2011:
--- !u!114 &11400000
MonoBehaviour:
  m_ObjectHideFlags: 0
  m_CorrespondingSourceObject: {fileID: 0}
  m_PrefabInstance: {fileID: 0}
  m_PrefabAsset: {fileID: 0}
  m_GameObject: {fileID: 0}
  m_Enabled: 1
  m_EditorHideFlags: 0
  m_Script: {fileID: 11500000, guid: ca27ab3e6bef43247adb90f74eac1b2c, type: 3}
  m_Name: Enemy_02
  m_EditorClassIdentifier: 
  prefab: {fileID: 2411195786660281680, guid: 5fcf60c5e30785c48915010f44b245d9, type: 3}
  scale: {x: 2, y: 2, z: 2}
  health: 5
  speed: 1
  showHealth: 1
  splitValues: {fileID: 11400000, guid: 7f2855eaf1dc6494b838e8a45810ff8a, type: 2}
  level: 0
