%YAML 1.1
%TAG !u! tag:unity3d.com,2011:
--- !u!114 &11400000
MonoBehaviour:
  m_ObjectHideFlags: 0
  m_CorrespondingSourceObject: {fileID: 0}
  m_PrefabInstance: {fileID: 0}
  m_PrefabAsset: {fileID: 0}
  m_GameObject: {fileID: 0}
  m_Enabled: 1
  m_EditorHideFlags: 0
  m_Script: {fileID: 11500000, guid: 0552540e81cc9d74dbeb08db95e982c1, type: 3}
  m_Name: EnemySplit_05
  m_EditorClassIdentifier: 
  spawnCount: 2
  spawnLevel: 4
  spawnedEnemySplitValue: {fileID: 0}
